%YAML 1.1
%TAG !u! tag:unity3d.com,2011:
--- !u!1045 &1
EditorBuildSettings:
  m_ObjectHideFlags: 0
  serializedVersion: 2
  m_Scenes:
  - enabled: 1
    path: "Assets/\u043F\u0440\u0435\u0432\u044C\u044E\u0445\u0430.unity"
    guid: 58fbd7c24b6165b47a8e7b714f057b02
  - enabled: 1
    path: Assets/menu.unity
    guid: e16d246b7acf50d46abcb3b481a18c4d
  - enabled: 1
    path: Assets/1check/card_match_game.unity
    guid: f684e1d00db7f634d9c04c134fcddbdc
  - enabled: 1
    path: Assets/1check/checkpoint.unity
    guid: d0990f95f814ed24daacc36578f13211
  - enabled: 1
    path: Assets/1check/computer_parts_game.unity
    guid: 437e69951efd7de4f9df42bed019729e
  - enabled: 1
    path: Assets/1check/put_in_chest_game.unity
    guid: d33407d8ebef87148b4ab2b1b262a346
  - enabled: 1
    path: Assets/1check/typing_game.unity
    guid: 31aa2deed4131a04aa599e9b96cc1799
  - enabled: 1
    path: Assets/2check/choice_zno.unity
    guid: 791a69e5bf1013b42b9b48602531843a
  - enabled: 1
    path: Assets/2check/menu_zno.unity
    guid: 3266b7c028893aa428933af82fe01fe6
  - enabled: 1
    path: Assets/2check/Registration.unity
    guid: bc5a3acefd75e8d42b8ff4c97ad3ceec
  - enabled: 1
    path: Assets/2check/tests_zno.unity
    guid: 0fc699f5650890b4587966a747387b82
  - enabled: 1
    path: Assets/3check/Dialogue/Dialogue.unity
    guid: 83de5354e6a780f4bb02925ef4d4fe78
  - enabled: 1
    path: Assets/4check/4checkpoint.unity
    guid: e2c940c9bd10ebc4fb678dce11038ae3
  - enabled: 1
    path: "Assets/4check/\u044F \u0442\u0435\u0431\u0435 \u0445\u0430\u043A\u043D\u0443\u0432/kill_the_bugs_game.unity"
    guid: 87a79989b2cc42340ad9019ab7fc2a40
